<svg width="40" height="50" viewBox="0 0 40 50" fill="none" xmlns="http://www.w3.org/2000/svg">
<path d="M39.8629 47.8457L30.6954 31.674C36.5667 28.7383 39.2448 23.0731 39.2448 16.8413C39.2448 11.8971 37.6482 7.82836 34.4551 4.68672C31.3135 1.54507 26.6267 0 20.4464 0H1.18455C0.515024 0 0 0.515024 0 1.18455V48.4122C0 49.0818 0.515024 49.5968 1.18455 49.5968H11.6395C12.3091 49.5968 12.8241 49.0818 12.8241 48.4122V34.0946H17.7168L25.7512 48.9788C25.9572 49.3393 26.3692 49.5968 26.7812 49.5968H38.8328C39.7083 49.5968 40.2749 48.6183 39.8629 47.8457ZM26.2147 19.2619C26.2147 20.1374 25.5452 20.8585 24.6696 20.8585H11.794V17.2533H26.2147V19.2619ZM26.2147 14.5752H11.794V10.97H24.6696C25.5452 10.97 26.2147 11.691 26.2147 12.5666V14.5752Z" fill="#3D2D82"/>
</svg>
