<svg version="1.1" id="Layer_1" xmlns="http://www.w3.org/2000/svg" x="0" y="0" viewBox="0 0 910 510" xml:space="preserve">
  <style>
    .st0{fill:#fffdfd}
  </style>
    <path class="st0" d="M.6 0L0 .6V0zM20.6 0L0 20.6v-1.4L19.2 0zM40.6 0L0 40.6v-1.4L39.2 0zM60.6 0L0 60.6v-1.4L59.2 0zM80.6 0L0 80.6v-1.4L79.2 0zM100.6 0L0 100.6v-1.4L99.2 0zM120.6 0L0 120.6v-1.4L119.2 0zM140.6 0L0 140.6v-1.4L139.2 0zM160.6 0L0 160.6v-1.4L159.2 0zM180.6 0L0 180.6v-1.4L179.2 0zM200.6 0L0 200.6v-1.4L199.2 0zM220.6 0L0 220.6v-1.4L219.2 0zM240.6 0L0 240.6v-1.4L239.2 0zM260.6 0L0 260.6v-1.4L259.2 0zM280.6 0L0 280.6v-1.4L279.2 0zM300.6 0L0 300.6v-1.4L299.2 0zM320.6 0L0 320.6v-1.4L319.2 0zM340.6 0L0 340.6v-1.4L339.2 0zM360.6 0L0 360.6v-1.4L359.2 0zM380.6 0L0 380.6v-1.4L379.2 0zM400.6 0L0 400.6v-1.4L399.2 0zM420.6 0L0 420.6v-1.4L419.2 0zM440.6 0L0 440.6v-1.4L439.2 0zM460.6 0L0 460.6v-1.4L459.2 0zM480.6 0L0 480.6v-1.4L479.2 0zM500.6 0L0 500.6v-1.4L499.2 0zM520.6 0l-510 510H9.2l510-510zM540.6 0l-510 510h-1.4l510-510zM560.6 0l-510 510h-1.4l510-510zM580.6 0l-510 510h-1.4l510-510zM600.6 0l-510 510h-1.4l510-510zM620.6 0l-510 510h-1.4l510-510zM640.6 0l-510 510h-1.4l510-510zM660.6 0l-510 510h-1.4l510-510zM680.6 0l-510 510h-1.4l510-510zM700.6 0l-510 510h-1.4l510-510zM720.6 0l-510 510h-1.4l510-510zM740.6 0l-510 510h-1.4l510-510zM760.6 0l-510 510h-1.4l510-510zM780.6 0l-510 510h-1.4l510-510zM800.6 0l-510 510h-1.4l510-510zM820.6 0l-510 510h-1.4l510-510zM840.6 0l-510 510h-1.4l510-510zM860.6 0l-510 510h-1.4l510-510zM880.6 0l-510 510h-1.4l510-510zM900.6 0l-510 510h-1.4l510-510zM910 9.2v1.4L410.6 510h-1.4zM910 29.2v1.4L430.6 510h-1.4zM910 49.2v1.4L450.6 510h-1.4zM910 69.2v1.4L470.6 510h-1.4zM910 89.2v1.4L490.6 510h-1.4zM910 109.2v1.4L510.6 510h-1.4zM910 129.2v1.4L530.6 510h-1.4zM910 149.2v1.4L550.6 510h-1.4zM910 169.2v1.4L570.6 510h-1.4zM910 189.2v1.4L590.6 510h-1.4zM910 209.2v1.4L610.6 510h-1.4zM910 229.2v1.4L630.6 510h-1.4zM910 249.2v1.4L650.6 510h-1.4zM910 269.2v1.4L670.6 510h-1.4zM910 289.2v1.4L690.6 510h-1.4zM910 309.2v1.4L710.6 510h-1.4zM910 329.2v1.4L730.6 510h-1.4zM910 349.2v1.4L750.6 510h-1.4zM910 369.2v1.4L770.6 510h-1.4zM910 389.2v1.4L790.6 510h-1.4zM910 409.2v1.4L810.6 510h-1.4zM910 429.2v1.4L830.6 510h-1.4zM910 449.2v1.4L850.6 510h-1.4zM910 469.2v1.4L870.6 510h-1.4zM910 489.2v1.4L890.6 510h-1.4zM909.2 510l.8-.8v.8z"/>
    <path d="M499.2 0L0 499.2v1.4L500.6 0h-1.4zm-20 0L0 479.2v1.4L480.6 0h-1.4zm-120 0L0 359.2v1.4L360.6 0h-1.4zm20 0L0 379.2v1.4L380.6 0h-1.4zm140 0L9.2 510h1.4l510-510h-1.4zm-120 0L0 399.2v1.4L400.6 0h-1.4zm20 0L0 419.2v1.4L420.6 0h-1.4zm20 0L0 439.2v1.4L440.6 0h-1.4zm20 0L0 459.2v1.4L460.6 0h-1.4zm240 0l-510 510h1.4l510-510h-1.4zm-60 0l-510 510h1.4l510-510h-1.4zm-20 0l-510 510h1.4l510-510h-1.4zm60 0l-510 510h1.4l510-510h-1.4zm-120 0l-510 510h1.4l510-510h-1.4zm-20 0l-510 510h1.4l510-510h-1.4zm60 0l-510 510h1.4l510-510h-1.4zm-20 0l-510 510h1.4l510-510h-1.4zm80 0l-510 510h1.4l510-510h-1.4zm-580 0L0 79.2v1.4L80.6 0h-1.4zm20 0L0 99.2v1.4L100.6 0h-1.4zm20 0L0 119.2v1.4L120.6 0h-1.4zm-60 0L0 59.2v1.4L60.6 0h-1.4zm-20 0L0 39.2v1.4L40.6 0h-1.4zM0 0v.6L.6 0H0zm19.2 0L0 19.2v1.4L20.6 0h-1.4zm120 0L0 139.2v1.4L140.6 0h-1.4zm120 0L0 259.2v1.4L260.6 0h-1.4zm-100 0L0 159.2v1.4L160.6 0h-1.4zm180 0L0 339.2v1.4L340.6 0h-1.4zm-60 0L0 279.2v1.4L280.6 0h-1.4zm40 0L0 319.2v1.4L320.6 0h-1.4zm-20 0L0 299.2v1.4L300.6 0h-1.4zm-100 0L0 199.2v1.4L200.6 0h-1.4zm20 0L0 219.2v1.4L220.6 0h-1.4zm20 0L0 239.2v1.4L240.6 0h-1.4zm-60 0L0 179.2v1.4L180.6 0h-1.4zm431.4 510L910 210.6v-1.4L609.2 510h1.4zm20 0L910 230.6v-1.4L629.2 510h1.4zm-40 0L910 190.6v-1.4L589.2 510h1.4zm60 0L910 250.6v-1.4L649.2 510h1.4zm60 0L910 310.6v-1.4L709.2 510h1.4zm20 0L910 330.6v-1.4L729.2 510h1.4zm-160 0L910 170.6v-1.4L569.2 510h1.4zm120 0L910 290.6v-1.4L689.2 510h1.4zm-20 0L910 270.6v-1.4L669.2 510h1.4zm-140 0L910 130.6v-1.4L529.2 510h1.4zm-100 0L910 30.6v-1.4L429.2 510h1.4zm20 0L910 50.6v-1.4L449.2 510h1.4zm-41.4 0h1.4L910 10.6V9.2L409.2 510zm141.4 0L910 150.6v-1.4L549.2 510h1.4zm-80 0L910 70.6v-1.4L469.2 510h1.4zm280 0L910 350.6v-1.4L749.2 510h1.4zm-240 0L910 110.6v-1.4L509.2 510h1.4zm-20 0L910 90.6v-1.4L489.2 510h1.4zM739.2 0l-510 510h1.4l510-510h-1.4zm100 0l-510 510h1.4l510-510h-1.4zm-20 0l-510 510h1.4l510-510h-1.4zm-20 0l-510 510h1.4l510-510h-1.4zm60 0l-510 510h1.4l510-510h-1.4zm-100 0l-510 510h1.4l510-510h-1.4zm-40 0l-510 510h1.4l510-510h-1.4zm60 0l-510 510h1.4l510-510h-1.4zm100 0l-510 510h1.4l510-510h-1.4zm-8.6 510l39.4-39.4v-1.4L869.2 510h1.4zm-20 0l59.4-59.4v-1.4L849.2 510h1.4zm-40 0l99.4-99.4v-1.4L809.2 510h1.4zm20 0l79.4-79.4v-1.4L829.2 510h1.4zm-40 0L910 390.6v-1.4L789.2 510h1.4zm119.4 0v-.8l-.8.8h.8zM899.2 0l-510 510h1.4l510-510h-1.4zm-8.6 510l19.4-19.4v-1.4L889.2 510h1.4zm-120 0L910 370.6v-1.4L769.2 510h1.4z" opacity=".25" fill="#fff"/>
</svg>