[
  {
    "gift_id": "veronika-spanielsko",
    "country": "Španielsko",
    "user_name": "Veronika",
    "user_surename": "Mercová",
    "user_id": "veronika",
    "user_position": "Office and happiness manager",
    "description": "<p class=\"u-fs-16 u-large-fs-18 u-fw-600 u-xsmall-mb-35 u-large-mb-40\">Zamilovala som sa do tejto temperamentnej kultúry druhý týždeň v auguste, kedy sa tu koná týždňový festival na oslavu koní. Ľudia sú oblečení v typických krojoch, po uliciach idú dlhé sprievody koní, kočov, muzikantov a tanečníkov.</p><p class=\"u-fs-16 u-large-fs-18 u-fw-600 u-xsmall-mb-35 u-large-mb-40\">Počas týchto 7 dní je dovolené všetko, na uliciach neuvidíte ani jedného policajta. Ulice sú od ráno až do večera plné, auta nepremávajú, festival je po celom meste. Všetky vekové kategórie tancujú, spievajú, pijú a jedia.</p><p class=\"u-fs-16 u-large-fs-18 u-fw-600 u-xsmall-mb-35 u-large-mb-40\">V noci sa oslavy presúvajú za mesto, kde je na tento sviatok vytvorený niekoľko kilometrov dlhý areál. Na otázku, ako najlepšie spoznáš krajinu a kultúru mám odpoveď, ži akokeby si odtiaľ pochádzal.</p>",
    "cta_text": "Vyberte darček od Veroniky"
  },
  {
    "gift_id": "gift2",
    "country": "Španielsko",
    "user_name": "Martin",
    "user_surename": "Ďurica",
    "user_id": "martin",
    "user_position": "Office and happiness manager",
    "description": "<p class=\"u-fs-16 u-large-fs-18 u-fw-600 u-xsmall-mb-35 u-large-mb-40\">Zamilovala som sa do tejto temperamentnej kultúry druhý týždeň v auguste, kedy sa tu koná týždňový festival na oslavu koní. Ľudia sú oblečení v typických krojoch, po uliciach idú dlhé sprievody koní, kočov, muzikantov a tanečníkov.</p><p class=\"u-fs-16 u-large-fs-18 u-fw-600 u-xsmall-mb-35 u-large-mb-40\">Počas týchto 7 dní je dovolené všetko, na uliciach neuvidíte ani jedného policajta. Ulice sú od ráno až do večera plné, auta nepremávajú, festival je po celom meste. Všetky vekové kategórie tancujú, spievajú, pijú a jedia.</p><p class=\"u-fs-16 u-large-fs-18 u-fw-600 u-xsmall-mb-35 u-large-mb-40\">V noci sa oslavy presúvajú za mesto, kde je na tento sviatok vytvorený niekoľko kilometrov dlhý areál. Na otázku, ako najlepšie spoznáš krajinu a kultúru mám odpoveď, ži akokeby si odtiaľ pochádzal.</p>",
    "cta_text": "Vyberte darček od Martina"
  },
  {
    "gift_id": "gift3",
    "country": "Španielsko",
    "user_name": "Barbora",
    "user_surename": "Sušienková",
    "user_id": "barbora",
    "user_position": "Office and happiness manager",
    "description": "<p class=\"u-fs-16 u-large-fs-18 u-fw-600 u-xsmall-mb-35 u-large-mb-40\">Zamilovala som sa do tejto temperamentnej kultúry druhý týždeň v auguste, kedy sa tu koná týždňový festival na oslavu koní. Ľudia sú oblečení v typických krojoch, po uliciach idú dlhé sprievody koní, kočov, muzikantov a tanečníkov.</p><p class=\"u-fs-16 u-large-fs-18 u-fw-600 u-xsmall-mb-35 u-large-mb-40\">Počas týchto 7 dní je dovolené všetko, na uliciach neuvidíte ani jedného policajta. Ulice sú od ráno až do večera plné, auta nepremávajú, festival je po celom meste. Všetky vekové kategórie tancujú, spievajú, pijú a jedia.</p><p class=\"u-fs-16 u-large-fs-18 u-fw-600 u-xsmall-mb-35 u-large-mb-40\">V noci sa oslavy presúvajú za mesto, kde je na tento sviatok vytvorený niekoľko kilometrov dlhý areál. Na otázku, ako najlepšie spoznáš krajinu a kultúru mám odpoveď, ži akokeby si odtiaľ pochádzal.</p>",
    "cta_text": "Vyberte darček od Barbory"
  },
  {
    "gift_id": "gift4",
    "country": "Španielsko",
    "user_name": "Vladimír",
    "user_surename": "Cintula",
    "user_id": "vladimir_cintula",
    "user_position": "Office and happiness manager",
    "description": "<p class=\"u-fs-16 u-large-fs-18 u-fw-600 u-xsmall-mb-35 u-large-mb-40\">Zamilovala som sa do tejto temperamentnej kultúry druhý týždeň v auguste, kedy sa tu koná týždňový festival na oslavu koní. Ľudia sú oblečení v typických krojoch, po uliciach idú dlhé sprievody koní, kočov, muzikantov a tanečníkov.</p><p class=\"u-fs-16 u-large-fs-18 u-fw-600 u-xsmall-mb-35 u-large-mb-40\">Počas týchto 7 dní je dovolené všetko, na uliciach neuvidíte ani jedného policajta. Ulice sú od ráno až do večera plné, auta nepremávajú, festival je po celom meste. Všetky vekové kategórie tancujú, spievajú, pijú a jedia.</p><p class=\"u-fs-16 u-large-fs-18 u-fw-600 u-xsmall-mb-35 u-large-mb-40\">V noci sa oslavy presúvajú za mesto, kde je na tento sviatok vytvorený niekoľko kilometrov dlhý areál. Na otázku, ako najlepšie spoznáš krajinu a kultúru mám odpoveď, ži akokeby si odtiaľ pochádzal.</p>",
    "cta_text": "Vyberte darček od Vlada"
  },
  {
    "gift_id": "gift5",
    "country": "Španielsko",
    "user_name": "Ľuboš",
    "user_surename": "Angus",
    "user_id": "lubos",
    "user_position": "Office and happiness manager",
    "description": "<p class=\"u-fs-16 u-large-fs-18 u-fw-600 u-xsmall-mb-35 u-large-mb-40\">Zamilovala som sa do tejto temperamentnej kultúry druhý týždeň v auguste, kedy sa tu koná týždňový festival na oslavu koní. Ľudia sú oblečení v typických krojoch, po uliciach idú dlhé sprievody koní, kočov, muzikantov a tanečníkov.</p><p class=\"u-fs-16 u-large-fs-18 u-fw-600 u-xsmall-mb-35 u-large-mb-40\">Počas týchto 7 dní je dovolené všetko, na uliciach neuvidíte ani jedného policajta. Ulice sú od ráno až do večera plné, auta nepremávajú, festival je po celom meste. Všetky vekové kategórie tancujú, spievajú, pijú a jedia.</p><p class=\"u-fs-16 u-large-fs-18 u-fw-600 u-xsmall-mb-35 u-large-mb-40\">V noci sa oslavy presúvajú za mesto, kde je na tento sviatok vytvorený niekoľko kilometrov dlhý areál. Na otázku, ako najlepšie spoznáš krajinu a kultúru mám odpoveď, ži akokeby si odtiaľ pochádzal.</p>",
    "cta_text": "Vyberte darček od Ľuboša"
  },
  {
    "gift_id": "gift6",
    "country": "Španielsko",
    "user_name": "Lenka",
    "user_surename": "Juhásová",
    "user_id": "lenka",
    "user_position": "Office and happiness manager",
    "description": "<p class=\"u-fs-16 u-large-fs-18 u-fw-600 u-xsmall-mb-35 u-large-mb-40\">Zamilovala som sa do tejto temperamentnej kultúry druhý týždeň v auguste, kedy sa tu koná týždňový festival na oslavu koní. Ľudia sú oblečení v typických krojoch, po uliciach idú dlhé sprievody koní, kočov, muzikantov a tanečníkov.</p><p class=\"u-fs-16 u-large-fs-18 u-fw-600 u-xsmall-mb-35 u-large-mb-40\">Počas týchto 7 dní je dovolené všetko, na uliciach neuvidíte ani jedného policajta. Ulice sú od ráno až do večera plné, auta nepremávajú, festival je po celom meste. Všetky vekové kategórie tancujú, spievajú, pijú a jedia.</p><p class=\"u-fs-16 u-large-fs-18 u-fw-600 u-xsmall-mb-35 u-large-mb-40\">V noci sa oslavy presúvajú za mesto, kde je na tento sviatok vytvorený niekoľko kilometrov dlhý areál. Na otázku, ako najlepšie spoznáš krajinu a kultúru mám odpoveď, ži akokeby si odtiaľ pochádzal.</p>",
    "cta_text": "Vyberte darček od Lenky"
  },
  {
    "gift_id": "gift7",
    "country": "Španielsko",
    "user_name": "Tomáš",
    "user_surename": "Šághy",
    "user_id": "tomas_saghy",
    "user_position": "Office and happiness manager",
    "description": "<p class=\"u-fs-16 u-large-fs-18 u-fw-600 u-xsmall-mb-35 u-large-mb-40\">Zamilovala som sa do tejto temperamentnej kultúry druhý týždeň v auguste, kedy sa tu koná týždňový festival na oslavu koní. Ľudia sú oblečení v typických krojoch, po uliciach idú dlhé sprievody koní, kočov, muzikantov a tanečníkov.</p><p class=\"u-fs-16 u-large-fs-18 u-fw-600 u-xsmall-mb-35 u-large-mb-40\">Počas týchto 7 dní je dovolené všetko, na uliciach neuvidíte ani jedného policajta. Ulice sú od ráno až do večera plné, auta nepremávajú, festival je po celom meste. Všetky vekové kategórie tancujú, spievajú, pijú a jedia.</p><p class=\"u-fs-16 u-large-fs-18 u-fw-600 u-xsmall-mb-35 u-large-mb-40\">V noci sa oslavy presúvajú za mesto, kde je na tento sviatok vytvorený niekoľko kilometrov dlhý areál. Na otázku, ako najlepšie spoznáš krajinu a kultúru mám odpoveď, ži akokeby si odtiaľ pochádzal.</p>",
    "cta_text": "Vyberte darček od Tomáša"
  },
  {
    "gift_id": "gift8",
    "country": "Španielsko",
    "user_name": "Igor",
    "user_surename": "Sloboda",
    "user_id": "igor",
    "user_position": "Office and happiness manager",
    "description": "<p class=\"u-fs-16 u-large-fs-18 u-fw-600 u-xsmall-mb-35 u-large-mb-40\">Zamilovala som sa do tejto temperamentnej kultúry druhý týždeň v auguste, kedy sa tu koná týždňový festival na oslavu koní. Ľudia sú oblečení v typických krojoch, po uliciach idú dlhé sprievody koní, kočov, muzikantov a tanečníkov.</p><p class=\"u-fs-16 u-large-fs-18 u-fw-600 u-xsmall-mb-35 u-large-mb-40\">Počas týchto 7 dní je dovolené všetko, na uliciach neuvidíte ani jedného policajta. Ulice sú od ráno až do večera plné, auta nepremávajú, festival je po celom meste. Všetky vekové kategórie tancujú, spievajú, pijú a jedia.</p><p class=\"u-fs-16 u-large-fs-18 u-fw-600 u-xsmall-mb-35 u-large-mb-40\">V noci sa oslavy presúvajú za mesto, kde je na tento sviatok vytvorený niekoľko kilometrov dlhý areál. Na otázku, ako najlepšie spoznáš krajinu a kultúru mám odpoveď, ži akokeby si odtiaľ pochádzal.</p>",
    "cta_text": "Vyberte darček od Igora"
  },
  {
    "gift_id": "gift9",
    "country": "Španielsko",
    "user_name": "Tomáš",
    "user_surename": "Slávik",
    "user_id": "tomas_slavik",
    "user_position": "Office and happiness manager",
    "description": "<p class=\"u-fs-16 u-large-fs-18 u-fw-600 u-xsmall-mb-35 u-large-mb-40\">Zamilovala som sa do tejto temperamentnej kultúry druhý týždeň v auguste, kedy sa tu koná týždňový festival na oslavu koní. Ľudia sú oblečení v typických krojoch, po uliciach idú dlhé sprievody koní, kočov, muzikantov a tanečníkov.</p><p class=\"u-fs-16 u-large-fs-18 u-fw-600 u-xsmall-mb-35 u-large-mb-40\">Počas týchto 7 dní je dovolené všetko, na uliciach neuvidíte ani jedného policajta. Ulice sú od ráno až do večera plné, auta nepremávajú, festival je po celom meste. Všetky vekové kategórie tancujú, spievajú, pijú a jedia.</p><p class=\"u-fs-16 u-large-fs-18 u-fw-600 u-xsmall-mb-35 u-large-mb-40\">V noci sa oslavy presúvajú za mesto, kde je na tento sviatok vytvorený niekoľko kilometrov dlhý areál. Na otázku, ako najlepšie spoznáš krajinu a kultúru mám odpoveď, ži akokeby si odtiaľ pochádzal.</p>",
    "cta_text": "Vyberte darček od Tomáša"
  },
  {
    "gift_id": "gift9",
    "country": "Španielsko",
    "user_name": "Vladimír",
    "user_surename": "Vanek",
    "user_id": "vladimir_vanek",
    "user_position": "Office and happiness manager",
    "description": "<p class=\"u-fs-16 u-large-fs-18 u-fw-600 u-xsmall-mb-35 u-large-mb-40\">Zamilovala som sa do tejto temperamentnej kultúry druhý týždeň v auguste, kedy sa tu koná týždňový festival na oslavu koní. Ľudia sú oblečení v typických krojoch, po uliciach idú dlhé sprievody koní, kočov, muzikantov a tanečníkov.</p><p class=\"u-fs-16 u-large-fs-18 u-fw-600 u-xsmall-mb-35 u-large-mb-40\">Počas týchto 7 dní je dovolené všetko, na uliciach neuvidíte ani jedného policajta. Ulice sú od ráno až do večera plné, auta nepremávajú, festival je po celom meste. Všetky vekové kategórie tancujú, spievajú, pijú a jedia.</p><p class=\"u-fs-16 u-large-fs-18 u-fw-600 u-xsmall-mb-35 u-large-mb-40\">V noci sa oslavy presúvajú za mesto, kde je na tento sviatok vytvorený niekoľko kilometrov dlhý areál. Na otázku, ako najlepšie spoznáš krajinu a kultúru mám odpoveď, ži akokeby si odtiaľ pochádzal.</p>",
    "cta_text": "Vyberte darček od Vlada"
  }
]